Reading web data: Part I
…
Were only focused on the first table for now, so lets get the contents from the first list element, and then well convert it into an R dataframe.

table_marj = (drug_use_xml %>% html_nodes(css = "table"))[[1]] # extracts the first element of the list, which is the first table

table_marj = table_marj %>% html_table() 

I wont print the table here, but if you look at it youll notice a problem: the note at the bottom of the table appears in every column in the first row. We need to remove that; Ill also convert to a tibble so that things print nicely.

table_marj = table_marj %>%
  slice(-1) %>%  
  as_tibble()

table_marj
## # A tibble: 56 x 16
##    State `12+(2013-2014)` `12+(2014-2015)` `12+(P Value)` `12-17(2013-201
##    <chr> <chr>            <chr>            <chr>          <chr>           
##  1 Tota 12.90a           13.36            0.002          13.28b          
##  2 Nort 13.88a           14.66            0.005          13.98           
##  3 Midw 12.40b           12.76            0.082          12.45           
##  4 South 11.24a           11.64            0.029          12.02           
##  5 West  15.27            15.62            0.262          15.53a          
##  6 Alab 9.98             9.60             0.426          9.90            
##  7 Alas 19.60a           21.92            0.010          17.30           
##  8 Ariz 13.69            13.12            0.364          15.12           
##  9 Arka 11.37            11.59            0.678          12.79           
## 10 Cali 14.49            15.25            0.103          15.03           
## #  with 46 more rows, and 11 more variables: `12-17(2014-2015)` <chr>,
## #   `12-17(P Value)` <chr>, `18-25(2013-2014)` <chr>,
## #   `18-25(2014-2015)` <chr>, `18-25(P Value)` <chr>,
## #   `26+(2013-2014)` <chr>, `26+(2014-2015)` <chr>, `26+(P Value)` <chr>,
## #   `18+(2013-2014)` <chr>, `18+(2014-2015)` <chr>, `18+(P Value)` <chr>
…
peaks
## # A tibble: 2 x 1
##   X1                                                 
##   <chr>                                              
## 1 Map this section's coordinates using: OpenStreetMap
## 2 Download coordinates as: KMLGPX

This doesnt seem like what we want what happened?

peaks = (read_html(url) %>% html_nodes(css = "table"))[[2]] %>% 
  html_table() %>% as_tibble()

peaks
## # A tibble: 117 x 7
##     Rank `Mountain Peak` `Mountain Range` Elevation Prominence Isolation
##    <int> <chr>           <chr>            <chr>     <chr>      <chr>    
##  1     1 Mount Elbert[1 Sawatch Range    14,440f 9,093ft2 1,079.15 
##  2     2 Mount Massive[ Sawatch Range    14,428f 1,961ft5 5.06mi8
##  3     3 Mount Harvard[ Sawatch Range    14,421f 2,360ft7 14.92mi
##  4     4 Blanca Peak[18 Sangre de Crist 14,351f 5,326ft1 103.4mi
##  5     5 La Plata Peak[ Sawatch Range    14,343f 1,836ft5 6.28mi1
##  6     6 Uncompahgre Pe San Juan Mounta 14,321f 4,277ft1 85mi136
##  7     7 Crestone Peak[ Sangre de Crist 14,300f 4,554ft1 27.4mi4
##  8     8 Mount Lincoln[ Mosquito Range   14,293f 3,862ft1 22.5mi3
##  9     9 Castle Peak[45 Elk Mountains    14,279f 2,365ft7 20.9mi3
## 10    10 Grays Peak[50] Front Range      14,278f 2,770ft8 25mi40.
## #  with 107 more rows, and 1 more variable: Location <chr>

Thats better. Im going to do a little data cleaning to get the data in a tidier format. In particular, I want:

lower case column names without spaces

elevation to be a numeric variable

Really I would want all of the variables to be tidier but Ill just show you how to clean one.

peaks %>% janitor::clean_names() %>%
  mutate(elevation = str_remove(elevation, ",")) %>%
  separate(elevation, into = c("elevation_ft", "units"), extra = "drop") %>%
  mutate(elevation_ft = as.numeric(elevation_ft)) %>%
  select(-units)
## # A tibble: 117 x 7
##     rank mountain_peak mountain_range elevation_ft prominence isolation
##    <int> <chr>         <chr>                 <dbl> <chr>      <chr>    
##  1     1 Mount Elbert Sawatch Range         14440 9,093ft2 1,079.15 
##  2     2 Mount Massiv Sawatch Range         14428 1,961ft5 5.06mi8
##  3     3 Mount Harvar Sawatch Range         14421 2,360ft7 14.92mi
##  4     4 Blanca Peak[ Sangre de Cri        14351 5,326ft1 103.4mi
##  5     5 La Plata Pea Sawatch Range         14343 1,836ft5 6.28mi1
##  6     6 Uncompahgre  San Juan Moun        14321 4,277ft1 85mi136
##  7     7 Crestone Pea Sangre de Cri        14300 4,554ft1 27.4mi4
##  8     8 Mount Lincol Mosquito Range        14293 3,862ft1 22.5mi3
##  9     9 Castle Peak[ Elk Mountains         14279 2,365ft7 20.9mi3
## 10    10 Grays Peak[5 Front Range           14278 2,770ft8 25mi40.
## #  with 107 more rows, and 1 more variable: location <chr>
…
restaurants = yelp_html %>%
  html_nodes(".text-color--black-regular__373c0__38bRH.text-size--inherit__373c0__2gFQ3") %>%
  html_text()

num_reviews = yelp_html %>%
  html_nodes(".reviewCount__373c0__2r4xT") %>%
  html_text()

tibble(restaurants = restaurants,
       num_reviews = num_reviews) %>%
  slice(-1) %>%
  mutate(num_reviews = str_remove(num_reviews, " reviews"),
         num_reviews = str_remove(num_reviews, " review"),
         num_reviews = as.numeric(num_reviews)) 
## # A tibble: 30 x 2
##    restaurants                               num_reviews
##    <chr>                                           <dbl>
##  1 1.Work & Class                                  1376
##  2 2.Root Down                                     3259
##  3 3.Denver Biscuit Co.                            3417
##  4 4.Acorn - Denver                                1021
##  5 5.Stout Street Social                            978
##  6 6.Yahyas Mediterranean Grill & Pastries         214
##  7 7.Kitchen Table: BBQ & Comfort Food              530
##  8 8.Steubens Uptown                              2619
##  9 9.Chop Shop Casual Urban Eatery Colfax          1021
## 10 10.Kyu Ramen                                       1
## #  with 20 more rows
…
